{
    "defaultSeverity": "error",
    "extends": ["tslint:recommended"],
    "jsRules": {},
    "rules": {
        "quotemark": false,
        "trailing-comma": false,
        "arrow-return-shorthand": true,
        "arrow-parens": true,
        "curly": [true, "ignore-same-line"],
        "no-console": false,
        "prefer-for-of": false,
        "interface-name": false,
        "indent": [true, "spaces"],
        "no-eval": true,
        "prefer-const": true,
        "no-empty": false,
        "object-literal-shorthand": false,
        "object-literal-sort-keys": false,
        "variable-name": false,
        "max-classes-per-file": false
    },
    "rulesDirectory": []
}
